^C:\USERS\TOMER\ONEDRIVE\מסמכים\VISUAL STUDIO 2013\PROJECTS\WARGAMES\WARGAMES\CARD.CPP
/c /ZI /nologo /W3 /WX- /sdl /Od /Oy- /D _MBCS /Gm /EHsc /RTC1 /MDd /GS /fp:precise /Zc:wchar_t /Zc:forScope /Fo"DEBUG\\" /Fd"DEBUG\VC120.PDB" /Gd /TP /analyze- C:\USERS\TOMER\ONEDRIVE\מסמכים\VISUAL STUDIO 2013\PROJECTS\WARGAMES\WARGAMES\CARD.CPP
^C:\USERS\TOMER\ONEDRIVE\מסמכים\VISUAL STUDIO 2013\PROJECTS\WARGAMES\WARGAMES\MAIN.CPP
/c /ZI /nologo /W3 /WX- /sdl /Od /Oy- /D _MBCS /Gm /EHsc /RTC1 /MDd /GS /fp:precise /Zc:wchar_t /Zc:forScope /Fo"DEBUG\\" /Fd"DEBUG\VC120.PDB" /Gd /TP /analyze- C:\USERS\TOMER\ONEDRIVE\מסמכים\VISUAL STUDIO 2013\PROJECTS\WARGAMES\WARGAMES\MAIN.CPP
^C:\USERS\TOMER\ONEDRIVE\מסמכים\VISUAL STUDIO 2013\PROJECTS\WARGAMES\WARGAMES\DECK.CPP
/c /ZI /nologo /W3 /WX- /sdl /Od /Oy- /D _MBCS /Gm /EHsc /RTC1 /MDd /GS /fp:precise /Zc:wchar_t /Zc:forScope /Fo"DEBUG\\" /Fd"DEBUG\VC120.PDB" /Gd /TP /analyze- C:\USERS\TOMER\ONEDRIVE\מסמכים\VISUAL STUDIO 2013\PROJECTS\WARGAMES\WARGAMES\DECK.CPP
^C:\USERS\TOMER\ONEDRIVE\מסמכים\VISUAL STUDIO 2013\PROJECTS\WARGAMES\WARGAMES\WARPLAYER.CPP
/c /ZI /nologo /W3 /WX- /sdl /Od /Oy- /D _MBCS /Gm /EHsc /RTC1 /MDd /GS /fp:precise /Zc:wchar_t /Zc:forScope /Fo"DEBUG\\" /Fd"DEBUG\VC120.PDB" /Gd /TP /analyze- C:\USERS\TOMER\ONEDRIVE\מסמכים\VISUAL STUDIO 2013\PROJECTS\WARGAMES\WARGAMES\WARPLAYER.CPP
^C:\USERS\TOMER\ONEDRIVE\מסמכים\VISUAL STUDIO 2013\PROJECTS\WARGAMES\WARGAMES\WARGAME.CPP
/c /ZI /nologo /W3 /WX- /sdl /Od /Oy- /D _MBCS /Gm /EHsc /RTC1 /MDd /GS /fp:precise /Zc:wchar_t /Zc:forScope /Fo"DEBUG\\" /Fd"DEBUG\VC120.PDB" /Gd /TP /analyze- C:\USERS\TOMER\ONEDRIVE\מסמכים\VISUAL STUDIO 2013\PROJECTS\WARGAMES\WARGAMES\WARGAME.CPP
^C:\USERS\TOMER\ONEDRIVE\מסמכים\VISUAL STUDIO 2013\PROJECTS\WARGAMES\WARGAMES\WARGAMES.CPP
/c /ZI /nologo /W3 /WX- /sdl /Od /Oy- /D _MBCS /Gm /EHsc /RTC1 /MDd /GS /fp:precise /Zc:wchar_t /Zc:forScope /Fo"DEBUG\\" /Fd"DEBUG\VC120.PDB" /Gd /TP /analyze- C:\USERS\TOMER\ONEDRIVE\מסמכים\VISUAL STUDIO 2013\PROJECTS\WARGAMES\WARGAMES\WARGAMES.CPP
